…
```r
aug_mod <- augment(ssn_mod)
subset(aug_mod, select = c(Summer_mn, .fitted, .resid, .hat, .cooksd))
```

```
## Simple feature collection with 45 features and 5 fields
## Geometry type: POINT
## Dimension:     XY
## Bounding box:  xmin: -1530805 ymin: 920324.3 xmax: -1503079 ymax: 931036.6
## Projected CRS: USA_Contiguous_Albers_Equal_Area_Conic
## # A tibble: 45 x 6
##    Summer_mn .fitted  .resid    .hat   .cooksd            geometry
##        <dbl>   <dbl>   <dbl>   <dbl>     <dbl>         <POINT [m]>
##  1      14.9    14.1  0.770  0.0724  0.00274   (-1528194 929550.4)
##  2      14.7    14.0  0.714  0.0569  0.0000449 (-1528222 928237.7)
##  3      14.6    13.8  0.776  0.0629  0.00259   (-1528485 927846.1)
##  4      15.2    14.8  0.427  0.125   0.0471    (-1519790 930112.1)
##  5      14.5    14.5 -0.0437 0.0359  0.0343      (-1520336 929772)
##  6      15.3    14.3  1.01   0.0220  0.00329   (-1524599 930808.7)
##  7      15.1    14.3  0.797  0.0178  0.000105  (-1525729 930933.4)
##  8      14.9    14.1  0.833  0.00213 0.0000813 (-1527966 929774.7)
##  9      15.0    13.9  1.06   0.0560  0.000182  (-1528257 929648.2)
## 10      15.0    13.9  1.15   0.0471  0.00684   (-1528428 929476.2)
## # i 35 more rows
```
…
Spatial prediction (i.e., Kriging) at the unobserved sites is performed using the generic functions `predict()` or `augment()`:

```r
aug_pred <- augment(ssn_mod, newdata = "pred1km", interval = "prediction")
subset(aug_pred, select = c(.fitted, .lower, .upper))
```

```
## Simple feature collection with 175 features and 3 fields
## Geometry type: POINT
## Dimension:     XY
## Bounding box:  xmin: -1530631 ymin: 914920.7 xmax: -1500020 ymax: 933466.4
## Projected CRS: USA_Contiguous_Albers_Equal_Area_Conic
## # A tibble: 175 x 4
##    .fitted .lower .upper            geometry
##      <dbl>  <dbl>  <dbl>         <POINT [m]>
##  1    14.7   14.4   15.0 (-1528406 928161.4)
##  2    14.7   14.3   15.2 (-1528202 928821.1)
##  3    14.9   14.5   15.2 (-1528173 929414.9)
##  4    14.4   12.6   16.1 (-1530218 926538.7)
##  5    14.5   12.7   16.2 (-1529466 926808.1)
##  6    14.5   14.1   14.9 (-1520657 929871.1)
##  7    15.0   14.7   15.4 (-1519866 930025.5)
##  8    14.7   13.7   15.6 (-1521823 930124.7)
##  9    14.9   13.8   16.0 (-1523183 930469.7)
## 10    15.2   14.7   15.8 (-1523860 930665.8)
## # i 165 more rows
```
…
