An Introduction to Spatial Stream Network Modeling in R Using SSN2 • SSN2
…
We augment the data with model diagnostics by running

aug_ssn_mod <- augment(ssn_mod)
aug_ssn_mod

#> Simple feature collection with 45 features and 9 fields
#> Geometry type: POINT
#> Dimension:     XY
#> Bounding box:  xmin: -1530805 ymin: 920324.3 xmax: -1503079 ymax: 931036.6
#> Projected CRS: USA_Contiguous_Albers_Equal_Area_Conic
#> # A tibble: 45 × 10
#>    Summer_mn ELEV_DEM AREAWTMAP .fitted  .resid    .hat .cooksd .std.resid pid  
#>  *     <dbl>    <int>     <dbl>   <dbl>   <dbl>   <dbl>   <dbl>      <dbl> <chr>
#>  1      14.9     1947     1001.    14.1  0.770  0.0724  2.74e-3     0.337  1    
#>  2      14.7     1952     1001.    14.0  0.714  0.0569  4.49e-5    -0.0486 2    
#>  3      14.6     1958     1001.    13.8  0.776  0.0629  2.59e-3     0.352  3    
#>  4      15.2     1923     1007.    14.8  0.427  0.125   4.71e-2     1.06   4    
#>  5      14.5     1932     1007.    14.5 -0.0437 0.0359  3.43e-2    -1.69   5    
#>  6      15.3     1940     1009.    14.3  1.01   0.0220  3.29e-3     0.670  6    
#>  7      15.1     1940     1010.    14.3  0.797  0.0178  1.05e-4    -0.133  7    
#>  8      14.9     1945     1013.    14.1  0.833  0.00213 8.13e-5    -0.338  8    
#>  9      15.0     1948     1025.    13.9  1.06   0.0560  1.82e-4     0.0988 9    
#> 10      15.0     1950     1025.    13.9  1.15   0.0471  6.84e-3     0.660  10   
#> # ℹ 35 more rows
#> # ℹ 1 more variable: geometry <POINT [m]>
…
predict(ssn_mod, newdata = "pred1km")

While augment() was previously used to augment the
original data with model diagnostics, it can also be used to augment the
newdata with predictions:

aug_preds <- augment(ssn_mod, newdata = "pred1km")
aug_preds[, ".fitted"]

#> Simple feature collection with 175 features and 1 field
#> Geometry type: POINT
#> Dimension:     XY
#> Bounding box:  xmin: -1530631 ymin: 914920.7 xmax: -1500020 ymax: 933466.4
#> Projected CRS: USA_Contiguous_Albers_Equal_Area_Conic
#> # A tibble: 175 × 2
#>    .fitted            geometry
#>      <dbl>         <POINT [m]>
#>  1    14.7 (-1528406 928161.4)
#>  2    14.7 (-1528202 928821.1)
#>  3    14.9 (-1528173 929414.9)
#>  4    14.4 (-1530218 926538.7)
#>  5    14.5 (-1529466 926808.1)
#>  6    14.5 (-1520657 929871.1)
#>  7    15.0 (-1519866 930025.5)
#>  8    14.7 (-1521823 930124.7)
#>  9    14.9 (-1523183 930469.7)
#> 10    15.2 (-1523860 930665.8)
#> # ℹ 165 more rows
…
