Augment data with information from fitted model objects — augment.SSN2 • SSN2
…
ssn_mod <- ssn_lm(
  formula = Summer_mn ~ ELEV_DEM,
  ssn.object = mf04p,
  tailup_type = "exponential",
  additive = "afvArea"
)
augment(ssn_mod)
#> Simple feature collection with 45 features and 8 fields
#> Geometry type: POINT
#> Dimension:     XY
#> Bounding box:  xmin: -1530805 ymin: 920324.3 xmax: -1503079 ymax: 931036.6
#> Projected CRS: USA_Contiguous_Albers_Equal_Area_Conic
#> # A tibble: 45 × 9
#>    Summer_mn ELEV_DEM .fitted  .resid    .hat   .cooksd .std.resid pid  
#>  *     <dbl>    <int>   <dbl>   <dbl>   <dbl>     <dbl>      <dbl> <chr>
#>  1      14.9     1947    14.4  0.503  0.111   0.0165         0.545 1    
#>  2      14.7     1952    14.2  0.473  0.0557  0.00173        0.249 2    
#>  3      14.6     1958    14.0  0.568  0.0337  0.00658        0.625 3    
#>  4      15.2     1923    15.2 -0.0164 0.0744  0.00893        0.490 4    
#>  5      14.5     1932    14.9 -0.439  0.0202  0.0158        -1.25  5    
#>  6      15.3     1940    14.7  0.634  0.00569 0.000970       0.584 6    
#>  7      15.1     1940    14.7  0.414  0.00162 0.0000507     -0.250 7    
#>  8      14.9     1945    14.5  0.454  0.0574  0.0143        -0.706 8    
#>  9      15.0     1948    14.4  0.607  0.0739  0.00666        0.425 9    
#> 10      15.0     1950    14.3  0.705  0.0581  0.0196         0.821 10   
#> # ℹ 35 more rows
#> # ℹ 1 more variable: geometry <POINT [m]>
augment(ssn_mod, newdata = "CapeHorn")
#> Simple feature collection with 654 features and 19 fields
#> Geometry type: POINT
#> Dimension:     XY
#> Bounding box:  xmin: -1516634 ymin: 921030.2 xmax: -1512722 ymax: 924632.2
#> Projected CRS: USA_Contiguous_Albers_Equal_Area_Conic
#> # A tibble: 654 × 20
#>      rid   pid    COMID AREAWTMAP   SLOPE ELEV_DEM FlowCMS AirMEANc AirMWMTc
#>  * <int> <int>    <int>     <dbl>   <dbl>    <int>   <dbl>    <dbl>    <dbl>
#>  1    34  1494 23519461     1087. 0.00843     2011    34.8     21.5     35.5
#>  2    34  1495 23519461     1087. 0.00843     2011    34.8     21.5     35.5
#>  3    34  1496 23519461     1087. 0.00843     2011    34.8     21.5     35.5
#>  4    34  1497 23519461     1087. 0.00843     2011    34.8     21.5     35.5
#>  5    34  1498 23519461     1087. 0.00843     2011    34.8     21.5     35.5
#>  6    34  1499 23519461     1087. 0.00843     2011    34.8     21.5     35.5
#>  7    34  1500 23519461     1087. 0.00843     2013    34.8     21.5     35.5
#>  8    34  1501 23519461     1087. 0.00843     2013    34.8     21.5     35.5
#>  9    34  1502 23519461     1087. 0.00843     2013    34.8     21.5     35.5
#> 10    34  1503 23519461     1087. 0.00843     2011    34.8     21.5     35.5
#> # ℹ 644 more rows
#> # ℹ 11 more variables: rcaAreaKm2 <dbl>, h2oAreaKm2 <dbl>, ratio <dbl>,
#> #   snapdist <dbl>, upDist <dbl>, afvArea <dbl>, locID <int>, netID <dbl>,
#> #   netgeom <chr>, .fitted <dbl>, geometry <POINT [m]>
…
